com/lasalle/modelosDesarrollo/helloapp/HelloAppAutomationTest.class
com/lasalle/modelosDesarrollo/helloapp/controllers/HelloControllerUnitTest.class
com/lasalle/modelosDesarrollo/helloapp/controllers/HelloControllerITCase.class
com/lasalle/modelosDesarrollo/helloapp/HelloAppApplicationTest.class
